{
  "definitions": {},
  "type": "array",
  "title": "The Makes Schema",
  "description": "Contains different vehicle's makes.",
  "readOnly": true,
  "writeOnly": false,
  "required": [
    "Makes"
  ],
  "propreties": {
    "Makes": {
      "type": "array",
      "title": "The Make Schema",
      "description": "Contains the vehicle's make.",
      "default": null,
      "examples": [
        "Abarth"
      ],
      "readOnly": true,
      "writeOnly": false,
      "required": [
        "Make",
        "Models"
      ]
    },
    "properties": {
      "Make": {
        "type": "string",
        "title": "The Make Schema",
        "description": "Contains the vehicle's make.",
        "default": null,
        "examples": [
          "Abarth"
        ],
        "readOnly": true,
        "writeOnly": false
      },
      "Models": {
        "type": "array",
        "title": "The Models Schema",
        "description": "An array of JSON's objects, containig Plug, Years, Model, which corresponding to the same make.",
        "readOnly": true,
        "writeOnly": false,
        "required": [
          "Plug",
          "Years",
          "Model"
        ],
        "properties": {
          "Plug": {
            "type": "integer",
            "title": "The Plug Schema",
            "description": "The dongle's position in the vehicle.",
            "default": 1,
            "examples": [
              5
            ],
            "readOnly": true,
            "writeOnly": false
          },
          "Years": {
            "type": "array",
            "title": "The Years Schema",
            "description": "The year's generation.",
            "default": [
              2000,
              2001,
              2002,
              2003,
              2004,
              2005,
              2006,
              2007,
              2008,
              2009,
              2010,
              2011,
              2012,
              2013,
              2014,
              2015,
              2016,
              2017,
              2018,
              2019
            ],
            "examples": [
              2002,
              2003,
              2004
            ],
            "readOnly": true,
            "writeOnly": false
          },
          "Model": {
            "type": "string",
            "title": "The Model Schema",
            "description": "The make's corresponding model.",
            "default": [
              null
            ],
            "examples": [
              "Abarth 500"
            ],
            "readOnly": true,
            "writeOnly": false
          }
        }
      }
    }
  }
}
